{
    "name": "yiisoft/yii2-app-advanced",
    "description": "Yii 2 Advanced Application Template",
    "keywords": ["yii2", "framework", "advanced", "application template"],
    "homepage": "http://www.yiiframework.com/",
    "type": "project",
    "license": "BSD-3-Clause",
    "support": {
        "issues": "https://github.com/yiisoft/yii2/issues?state=open",
        "forum": "http://www.yiiframework.com/forum/",
        "wiki": "http://www.yiiframework.com/wiki/",
        "irc": "irc://irc.freenode.net/yii",
        "source": "https://github.com/yiisoft/yii2"
    },
    "minimum-stability": "stable",
    "require": {
        "php": ">=5.4.0",
        "2amigos/yii2-ckeditor-widget": "~1.0",
        "yiisoft/yii2": "*",
        "yiisoft/yii2-bootstrap": "*",
        "yiisoft/yii2-swiftmailer": "*",
        "kartik-v/yii2-detail-view": "*",
        "kartik-v/yii2-widget-datepicker": "~1.3",
        "kartik-v/yii2-widget-colorinput": "~1.0",
        "kartik-v/yii2-grid": "*",
        "kartik-v/yii2-mpdf": "~1.0",
        "kartik-v/yii2-dynagrid": "*",
        "kartik-v/yii2-widget-select2": "*",
        "kartik-v/yii2-editable": "dev-master",
        "mohammad-mahdy/yii2-jdate": "*",
        "kartik-v/yii2-widget-datetimepicker": "*",
        "cakebake/yii2-bootstrap-select": "*",
        "kartik-v/yii2-tabs-x": "*"
    },
    "require-dev": {
        "yiisoft/yii2-codeception": "*",
        "yiisoft/yii2-debug": "*",
        "yiisoft/yii2-gii": "*",
        "yiisoft/yii2-faker": "*"
    },
    "config": {
        "process-timeout": 1800
    },
    "extra": {
        "asset-installer-paths": {
            "npm-asset-library": "vendor/npm",
            "bower-asset-library": "vendor/bower"
        }
    }
}
