<?xml version="1.0" standalone="no"?>
<!DOCTYPE svg PUBLIC "-//W3C//DTD SVG 1.1//EN" "http://www.w3.org/Graphics/SVG/1.1/DTD/svg11.dtd" >
<svg xmlns="http://www.w3.org/2000/svg">
<metadata>Generated by IcoMoon</metadata>
<defs>
<font id="hd-fonts" horiz-adv-x="1024">
<font-face units-per-em="1024" ascent="960" descent="-64" />
<missing-glyph horiz-adv-x="1024" />
<glyph unicode="&#x20;" horiz-adv-x="512" d="" />
<glyph unicode="&#xe900;" glyph-name="hd-medal" d="M511.997-85.333c126.151 0 228.41 102.278 228.41 228.403 0 114.1-83.738 208.377-193.028 225.402v24.031c13.82 10.666 22.898 27.206 22.898 45.97 0 16.018-6.528 30.553-17.025 41.092l108.6 44.212v414.89h-54.117v-368.392h-33.301v360.067h-124.877v-360.067h-33.301v368.392h-54.112v-414.892l108.596-44.199c-10.505-10.535-17.017-25.070-17.017-41.088 0-18.762 9.074-35.321 22.894-45.97v-24.012c-109.311-17.059-193.028-111.336-193.028-225.4 0.002-126.162 102.265-228.44 228.408-228.44zM470.373 438.471c0 14.073 7.054 26.472 17.765 34.016l23.859-9.708 23.857 9.708c10.728-7.544 17.774-19.944 17.774-34.016 0-11.343-4.573-21.608-11.984-29.14h-59.294c-7.398 7.532-11.977 17.797-11.977 29.14z" />
<glyph unicode="&#xe901;" glyph-name="hd-ribbon" d="M368.322 796.070h287.367l51.701 142.584h-390.763zM154.917 796.070l183.265-423.688c39.408 33.614 88.524 56.042 142.561 62.512l-182.665 503.773-143.161-142.597zM725.962 938.654l-182.59-503.498c54.11-6.112 103.391-28.244 143.008-61.565l182.703 422.477-143.121 142.586zM512.948-85.333c139.434 0 252.444 113.019 252.444 252.407 0 69.079-27.78 131.58-72.706 177.173-2.165 2.18-4.49 4.23-6.732 6.359-2.254 2.109-4.534 4.185-6.812 6.216-38.719 33.91-87.724 56.317-141.866 61.474-3.003 0.276-6.083 0.276-9.112 0.465-3.034 0.169-6.048 0.391-9.108 0.462-2.036 0.027-4.025 0.304-6.088 0.304-2.685 0-5.281-0.304-7.95-0.411-3.058-0.062-6.092-0.258-9.135-0.445-3.014-0.207-6.101-0.207-9.088-0.491-54.068-5.576-102.891-28.384-141.354-62.605-2.311-2.040-4.614-4.072-6.825-6.219-2.249-2.147-4.507-4.294-6.672-6.537-44.138-45.449-71.428-107.378-71.428-175.746 0-139.39 113.030-252.407 252.433-252.407z" />
<glyph unicode="&#xe902;" glyph-name="hd-cup" d="M788.832 938.667l1.088-23.2c0.672-13.312-2.688-23.488-10.144-31.2-10.048-10.304-26.368-15.488-40.064-17.824 0.512 11.872 0.992 23.84 1.376 36.224-19.808 0-124.512 0-228.96 0-0.096 0-0.16 0-0.256 0-104.48 0-209.12 0-228.928 0 0.384-12.384 0.896-24.352 1.408-36.224-13.728 2.336-30.016 7.552-40.096 17.856-7.52 7.68-10.88 17.888-10.208 31.2l1.12 23.168h-121.312l0.416-22.528c6.72-387.552 170.784-481.376 245.888-504l-12.32-17.504 36.16-25.504 12.352 17.632c24.704-46.016 46.24-75.392 55.424-98.88h-16.768v-35.104h20.48c-8.288-54.208-117.888-116.992-117.888-116.992v-33.088h-26.88v-188.032h402.496v188.032h-26.816v33.088c0 0-109.632 62.784-117.92 116.992h20.48v35.104h-16.736c9.184 23.456 30.72 52.768 55.424 98.88l12.32-17.632 36.224 25.504-12.352 17.504c75.136 22.624 239.2 116.448 245.92 504l0.384 22.528h-121.312zM159.072 894.411h32.352c3.040-15.904 10.24-29.888 21.312-41.184 22.144-22.56 53.92-29.376 74.144-31.488 11.808-170.56 43.264-284.448 75.936-363.936-64.288 23.552-192.48 111.168-203.744 436.608zM661.152 457.803c32.672 79.488 64.128 193.376 75.936 363.936 20.256 2.112 52 8.928 74.112 31.488 11.136 11.296 18.304 25.28 21.344 41.184h32.352c-11.2-325.44-139.424-413.056-203.744-436.608z" />
<glyph unicode="&#xe903;" glyph-name="hd-chart" d="M735.032 711.205h254.893c18.818 0 34.078 15.257 34.078 34.078 0 18.818-15.257 34.075-34.078 34.075h-112.454v59.295h112.454c18.818 0 34.078 15.257 34.078 34.078 0 18.818-15.257 34.078-34.078 34.078h-254.893c-18.818 0-34.075-15.257-34.075-34.078v-29.648h-220.815c-18.818 0-34.075-15.257-34.075-34.078v-93.37h-220.822c-18.818 0-34.075-15.257-34.075-34.078v-220.815h-157.093c-18.822 0-34.078-15.257-34.078-34.075s15.257-34.075 34.078-34.075h157.093v-220.815c0-18.818 15.257-34.075 34.075-34.075h220.819v-93.37c0-18.818 15.257-34.075 34.075-34.075h220.815v-29.648c0-18.818 15.257-34.078 34.075-34.078h254.893c18.818 0 34.078 15.257 34.078 34.078 0 18.818-15.257 34.078-34.078 34.078h-112.454v59.295h112.454c18.818 0 34.078 15.257 34.078 34.075s-15.257 34.075-34.078 34.075h-254.893c-18.818 0-34.075-15.257-34.075-34.075v-29.648h-78.376v186.737h78.376v-29.644c0-18.818 15.257-34.075 34.075-34.075h254.893c18.818 0 34.078 15.257 34.078 34.075s-15.257 34.075-34.078 34.075h-112.454v59.292h112.454c18.818 0 34.078 15.257 34.078 34.075s-15.257 34.075-34.078 34.075h-254.893c-18.818 0-34.075-15.257-34.075-34.075v-29.648h-220.815c-18.818 0-34.075-15.257-34.075-34.075v-93.367h-78.379v441.627h78.379v-93.367c0-18.818 15.257-34.075 34.075-34.075h220.815v-29.648c0-18.818 15.257-34.075 34.075-34.075h254.893c18.818 0 34.078 15.257 34.078 34.075s-15.257 34.075-34.078 34.075h-112.454v59.292h112.454c18.818 0 34.078 15.257 34.078 34.075s-15.257 34.075-34.078 34.075h-254.893c-18.818 0-34.075-15.257-34.075-34.075v-29.644h-78.376v186.74h78.376v-29.648c0-18.818 15.26-34.078 34.078-34.078z" />
<glyph unicode="&#xe904;" glyph-name="hd-info" d="M874.070 788.715c-199.951 199.929-524.144 199.951-724.117 0-199.951-199.951-199.929-524.144 0-724.117 199.951-199.907 524.144-199.929 724.117 0 199.929 199.974 199.907 524.144 0 724.117zM578.773 204.042c0-36.887-29.897-66.784-66.784-66.784s-66.784 29.897-66.784 66.784v267.136c0 36.887 29.897 66.784 66.784 66.784s66.784-29.897 66.784-66.784v-267.136zM510.809 585.335c-38.468 0-64.113 27.248-63.311 60.885-0.801 35.262 24.844 61.686 64.090 61.686 39.269 0 64.113-26.446 64.936-61.686-0.022-33.637-25.645-60.885-65.716-60.885z" />
<glyph unicode="&#xe905;" glyph-name="hd-hold" d="M916.167 468.5c-7.472 12.517-20.024 19.417-35.592 19.417-28.9-0.104-63.677-11.563-90.757-29.888-24.982-16.903-61.198-48.23-91.762-101.644-5.738-10.021-15.152-16.816-25.225-18.429-0.035 2.323-0.017 4.976-0.017 7.472 0 5.374 0.017 11.754-0.208 18.793v383.744c0 38.244-31.102 69.346-69.346 69.346s-69.346-31.102-69.346-69.346v-268.716c0-4.768-3.901-8.668-8.668-8.668s-8.668 3.901-8.668 8.668v390.072c0 38.244-31.102 69.346-69.346 69.346s-69.346-31.102-69.346-69.346v-390.072c0-4.768-3.901-8.668-8.668-8.668s-8.668 3.901-8.668 8.668v312.058c0 33.46-27.218 60.678-60.678 60.678s-60.678-27.218-60.678-60.678v-346.731c0-4.768-3.901-8.668-8.668-8.668s-8.668 3.901-8.668 8.668v216.707c0 33.46-27.218 60.678-60.851 60.678-33.46 0-60.678-27.218-60.678-60.678l0.035-471.502c16.782-242.417 165.477-275.114 308.729-275.114 118.686 0 225.288 58.875 277.853 152.978 6.761 10.922 25.051 39.666 46.739 73.75 54.229 85.174 99.65 156.74 106.36 169.465 14.961 28.328 31.657 50.467 48.265 64.024 15.031 12.274 24.219 27.929 31.691 41.677 3.849 7.143 7.212 33.408-3.831 51.94z" />
<glyph unicode="&#xe906;" glyph-name="hd-medal2" d="M728.921 457.178v167.184c0 23.406-29.257 21.107-29.257 21.107l150.883 293.198h-231.34l-83.592-164.049 66.664-129.985h-47.020l-150.465 294.034h-231.34l150.256-294.034c0 0-29.257 5.016-29.257-21.107v-167.184c-60.186-56.842-97.384-138.136-97.384-227.37 0-173.871 140.434-314.305 314.305-314.305s314.096 140.434 314.096 314.305c0.836 90.070-36.571 170.527-96.549 228.206zM336.666 603.255h350.877v-112.849c-50.364 34.064-110.341 53.499-175.334 53.499s-124.97-19.435-175.334-53.499v112.849h-0.209zM512 8.081c-122.671 0-221.727 99.056-221.727 221.727s99.056 221.727 221.727 221.727 221.727-99.056 221.727-221.727-99.056-221.727-221.727-221.727zM685.035 232.943c0-95.565-77.47-173.035-173.035-173.035s-173.035 77.47-173.035 173.035c0 95.565 77.47 173.035 173.035 173.035s173.035-77.47 173.035-173.035z" />
<glyph unicode="&#xe907;" glyph-name="hd-boy" d="M978.541 0.851l-29.041 163.471c-7.688 43.478-47.708 84.673-91.018 93.906l-216.584 45.694c40.759 39.483 72.083 94.242 92.932 149.235 26.792 9.77 53.819 33.641 61.541 64.831 10.408 41.262-0.571 78.16-26.188 94.242v29.142c23.401 70.505 35.655 185.764-70.639 247.808-47.574 27.799-87.057 29.578-116.837 19.876-4.6 12.053 9.199 29.578 9.199 29.578-24.475 0.839-37.334-12.187-42.672-19.54-32.701 15.007-75.474 21.454-130.199 9.971-175.658-36.864-198.085-266.945-165.955-317.373-25.080-16.115-35.689-52.61-25.482-93.57 7.823-31.291 34.984-55.262 61.876-64.932 20.446-55.128 51.569-109.853 92.261-149.336l-216.249-45.526c-43.277-9.098-83.229-50.428-90.918-93.906l-29.142-163.538c-4.029-22.729 1.377-44.116 15.175-60.701 13.765-16.418 34.044-25.516 57.008-25.516h788.749c23.065 0 43.31 9.065 57.109 25.516 13.732 16.451 19.204 38.039 15.075 60.668zM937.749-38.296c-7.353-8.729-18.466-13.463-31.425-13.463h-153.298v39.080h192.344c0.134-9.636-1.847-18.734-7.621-25.617zM117.575-51.759c-12.892 0-24.005 4.801-31.324 13.463-5.775 6.883-7.823 15.981-7.688 25.617h192.344v-39.080h-153.331zM304.481-51.759v95.82c0 9.3-7.521 16.787-16.787 16.787s-16.787-7.487-16.787-16.787v-23.099h-187.879l24.475 137.619c5.338 30.015 35.017 60.701 64.797 66.946l153.13 32.264c49.723-49.286 117.307-77.623 187.677-77.623 71.042 0 137.149 27.396 187.442 77.186l151.015-31.828c29.847-6.312 59.526-37.032 64.865-66.946l24.475-137.619h-187.912v23.099c0 9.3-7.554 16.787-16.787 16.787-9.266 0-16.787-7.487-16.787-16.787v-95.82h-414.938zM511.966 245.939c35.655 0 67.853 11.684 96.457 30.754l51.569-10.878c-41.396-33.708-92.429-52.14-146.852-52.14-53.852 0-105.791 18.969-147.12 52.543l49.219 10.408c28.638-19.070 60.903-30.686 96.726-30.686zM317.406 486.093c-14.269-3.089-47.205 14.873-53.752 40.926-6.681 26.624-0.336 51.469 14.135 55.531 4.264 1.175 8.729 0.269 13.194-2.082v39.751c0.067 0.134 0.168 0.201 0.235 0.369-0.101 0.537-0.168 1.276-0.235 1.914v13.564c3.559 33.708 35.42 97.666 210.843 40.154 60.399-19.809 97.666 11.583 116.501 53.181 59.56-6.58 99.311-74.299 114.587-115.997v-32.936c2.149 1.175 4.432 2.082 6.614 2.417-0.067-0.302-0.034-0.839-0.134-1.041 0.504-0.638 1.377-0.201 2.585 0.974 1.377 0 2.753 0.201 4.096-0.235 14.47-4.062 20.782-28.873 14.135-55.497-6.446-25.885-39.181-43.713-53.382-41.027-18.969-57.78-56.84-131.676-110.827-172.401-6.446-4.902-13.295-9.098-20.245-12.993-9.804-5.439-20.077-9.837-30.787-12.792-10.576-2.921-21.689-4.7-33.104-4.7-11.65 0-22.83 1.712-33.574 4.7-10.744 2.954-21.084 7.286-30.921 12.657-6.983 3.827-13.765 8.091-20.245 12.993-53.55 40.289-90.683 113.345-109.719 172.569z" />
<glyph unicode="&#xe908;" glyph-name="hd-hijab" d="M515.19 938.12c89.515 5.404 165.020-29.513 226.774-96.534 33.875-36.766 53.537-80.537 62.607-129.537 9.362-50.549 22.664-100.304 30.607-151.152 10.215-65.393 15.189-130.572-5.755-195.099-7.741-23.849-21.095-44.54-34.357-65.406-15.417-24.265-31.29-48.199-42.176-75.12-9.030-22.332-6.296-41.896 9.76-59.696 5.443-6.035 10.886-12.071 16.407-18.035 20.815-22.507 24.337-47.997 11.752-75.387-33.497-72.9-88.708-120.565-166.524-141.386-59.065-15.801-118.527-21.524-179.343-10.111-62.144 11.667-119.972 31.401-164.264 79.385-19.382 21.003-34.813 44.846-46.929 70.68-13.484 28.751-9.681 55.119 12.507 78.369 0.56 0.586 1.12 1.178 1.673 1.777 34.702 37.502 36.486 50.809 13.139 96.13-11.908 23.113-26.166 44.82-40.594 66.35-27.325 40.776-38.25 86.267-40.125 134.439-2.65 67.972 11.172 133.912 25.398 199.767 6.66 30.854 11.296 62.366 20.756 92.348 33.608 106.528 107.83 169.2 215.595 193.693 11.413 2.591 23.276 3.626 34.988 4.356 11.732 0.736 23.556 0.169 38.107 0.169zM270.376 42.888c0.527 2.175-0.911 2.474-2.461 2.389-0.495-0.026-0.951-0.729-1.419-1.12 1.374-0.345 2.741-0.69 4.115-1.035 1.081-3.503 4.264-2.546 6.706-3.151 3.698-1.445 7.279-3.457 11.114-4.258 90.798-18.914 172.507-2.064 241.364 62.809 99.405 93.643 169.649 203.849 193.204 340.73 10.886 63.271 19.968 126.626 20.489 190.984 0.065 8.171-2.526 11.55-10.528 12.481-45.978 5.326-92.048 9.551-138.235 12.618-55.224 3.672-110.499 3.815-165.651 0.163-46.109-3.047-92.048-8.562-138.079-12.807-7.93-0.729-10.586-4.056-10.541-12.325 0.332-62.73 9.571-124.445 19.291-186.219 10.99-69.814 35.776-134.452 71.403-194.897 33.068-56.096 76.872-103.624 125.012-147.083 8.112-7.325 5.931-10.456-0.885-15.71-15.163-11.68-31.043-22.039-48.772-29.441-54.377-22.709-110.395-27.664-168.008-15.717-2.402 2.116-5.117 2.585-8.119 1.589zM420.557 66.932c-0.417 0.69-0.97 1.244-1.654 1.66-3.835 3.724-7.676 7.448-11.511 11.166-60.973 65.53-102.159 142.558-132.154 226.233-13.679 38.159-21.576 77.946-34.057 116.411-1.738 5.352-2.578 11.713-9.161 14.721-4.447-8.249-2.819-16.387-1.797-24.33 4.564-35.574 15.723-69.423 28.198-102.797 32.775-87.64 78.304-167.357 146.581-232.679 3.757-3.509 7.507-7.025 11.263-10.534 0.846-0.775 1.686-1.55 2.533-2.331 2.494-2.91 4.961-5.873 9.746-6.628-1.595 4.701-5.13 6.608-7.989 9.108zM473.372 0.986c2.8 0.475 5.638 0.768 8.386 1.445 85.433 20.99 148.196 71.989 193.615 146.080 61.695 100.636 94.457 211.415 114.139 326.673 1.751 10.274 4.18 21.466 0.371 33.921-6.068-6.921-7.507-13.321-9.414-19.415-7.989-25.483-13.679-51.558-19.617-77.575-19.148-83.858-44.351-165.489-85.55-241.631-45.822-84.684-111.131-144.563-207.001-166.849-21.388-3.249-42.775-6.498-64.163-9.746 23.354 0.345 46.786-0.469 69.235 7.097zM281.301 646.78c1.797 6.908 3.197 13.952 5.462 20.71 18.119 54.13 57.873 86.833 108.872 107.159 59.312 23.64 121.229 26.687 182.989 14.258 80.635-16.225 143.834-55.158 164.642-142.284 1.699 12.553-0.189 24.48-3.672 36.238-15.775 53.316-54.026 85.518-102.784 106.456-60.614 26.030-123.983 29.682-188.432 18.36-44.247-7.774-84.945-23.972-118.807-54.39-31.525-28.308-50.458-62.698-48.27-106.508zM468.3 3.635c0.944-2.311 3.255-2.005 5.072-2.65-22.449-7.559-45.881-6.745-69.235-7.097 21.388 3.249 42.775 6.498 64.163 9.746zM405.003 77.317c0.794 0.814 1.595 1.634 2.389 2.448 3.835-3.724 7.676-7.448 11.504-11.172-0.879-0.605-1.758-1.211-2.63-1.816-3.757 3.516-7.513 7.025-11.263 10.541zM420.557 66.945c2.858-2.513 6.393-4.421 7.982-9.128-4.792 0.755-7.253 3.711-9.746 6.628 0.592 0.833 1.178 1.667 1.764 2.5zM277.309 39.972c-2.442 0.605-5.625-0.352-6.706 3.151l-0.234-0.228c3.001 0.99 5.716 0.527 8.119-1.582-0.397-0.436-0.788-0.885-1.178-1.341zM270.603 43.123c-1.374 0.345-2.741 0.69-4.115 1.035 0.475 0.391 0.931 1.094 1.419 1.12 1.55 0.085 2.988-0.215 2.461-2.389l0.234 0.234zM418.793 64.445c-0.846 0.775-1.686 1.55-2.533 2.331 0.872 0.605 1.751 1.211 2.63 1.816 0.697-0.417 1.25-0.97 1.667-1.654-0.586-0.827-1.172-1.66-1.764-2.494zM597.264 324.117c-16.758-43.023-48.446-60.465-91.937-59.084-33.901 1.081-64.658 22.879-77.262 54.065-2.116 5.235 0.82 5.905 3.776 6.446 17.716 3.242 33.999 10.039 49.716 18.66 6.953 3.815 14.304 2.897 20.522-2.201 6.745-5.528 13.047-5.417 19.714 0.020 5.86 4.772 12.761 5.664 19.499 2.748 9.265-4.011 17.898-9.584 27.319-13.119 8.985-3.366 18.621-4.974 28.654-7.533zM439.393 189.978c17.631-8.047 34.988-16.654 54.377-20.19 31.368-5.723 59.137 4.447 86.169 18.477 3.841 1.992 7.598 4.141 14.616 7.982-10.144-16.231-20.697-27.599-30.522-39.507-13.191-15.997-27.351-31.108-41.681-46.089-5.502-5.755-8.692-5.384-14.232 0.013-25.053 24.409-48.817 49.95-70.446 77.451 0.579 0.625 1.152 1.244 1.719 1.862zM437.681 188.122c-0.931 0.964-3.001 1.771-0.749 3.268 0.352 0.234 1.615-0.905 2.461-1.413-0.566-0.619-1.139-1.237-1.712-1.856z" />
</font></defs></svg>